^C:\SIEMENSSUMMER\WEEK6DAY4_EUGENIA\MATERIAL2\YATZY_START\YATZY.CPP
/c /Zi /nologo /W3 /WX- /Od /Oy- /D WIN32 /D _DEBUG /D _CONSOLE /Gm /EHsc /RTC1 /MDd /GS /fp:precise /Zc:wchar_t /Zc:forScope /Zc:inline /Fo"DEBUG\\" /Fd"DEBUG\VC140.PDB" /Gd /TP /analyze- C:\SIEMENSSUMMER\WEEK6DAY4_EUGENIA\MATERIAL2\YATZY_START\YATZY.CPP
^C:\SIEMENSSUMMER\WEEK6DAY4_EUGENIA\MATERIAL2\YATZY_START\YATZY.TESTS.CPP
/c /Zi /nologo /W3 /WX- /Od /Oy- /D WIN32 /D _DEBUG /D _CONSOLE /Gm /EHsc /RTC1 /MDd /GS /fp:precise /Zc:wchar_t /Zc:forScope /Zc:inline /Fo"DEBUG\\" /Fd"DEBUG\VC140.PDB" /Gd /TP /analyze- C:\SIEMENSSUMMER\WEEK6DAY4_EUGENIA\MATERIAL2\YATZY_START\YATZY.TESTS.CPP
